r_users.knit
…
2.7 Which format is best for me?

The choice between long and wide formats ultimately depends on your research objectives.

Many data manipulation tasks, for example, are faster and easier to perform in the wide format. In the example above, we needed to identify women who completed a Female Questionnaire and were members of the de facto population in both phases. In the long format, we first had to group the data by FQINSTID with group_by, thereby ensuring that a Phase 1 and Phase 2 check could be performed for each woman. In preparing for this post, this approach took about 36.5 seconds. By comparison, the same task was achieved without group_by in wide format in just 0.16 seconds. If your workflow requires multiple comparisons between phases, the wide format may be the best choice!

On the other hand, many of the longitudinal modeling packages available for R require data to be in a long format - this includes both the survival package for Cox regression and the lme4 package for multilevel models. Users who prefer the wide format for data cleaning and exploration can manually switch to long format with help from pivot_longer, for example:

wide %>% select(FQINSTID, AGE_1, PREGNANT_1, AGE_2, PREGNANT_2)

## # A tibble: 17,725 × 5
##    FQINSTID                                  AGE_1     PREGNANT_1 AGE_2  PREGN…¹
##    <chr>                                     <int+lbl> <int+lbl>  <int+> <int+l>
##  1 uuid:0005f6d7-b7cd-46f6-8a6f-5f051b6ab4a2 30        0 [No]     31     0 [No] 
##  2 uuid:0006cb76-09d1-4f2a-a92d-c12fcaf194b5 34        1 [Yes]    34     0 [No] 
##  3 uuid:00204481-5cae-4188-abb3-0367d0ed9c14 17        0 [No]     18     0 [No] 
##  4 uuid:002398f4-8f2d-4095-8019-c306d39cf2b9 29        0 [No]     29     0 [No] 
##  5 uuid:00407300-c1e6-4e24-ab8d-8af5e1ca85a6 25        0 [No]     25     0 [No] 
##  6 uuid:00413ed1-d176-44fb-a232-7e53c1db0958 32        0 [No]     32     0 [No] 
##  7 uuid:0048a052-66ff-4ed5-9fa9-fc72e6dab696 38        0 [No]     39     0 [No] 
##  8 uuid:004d80f0-90c6-4b77-bb4d-21d09c84fe74 38        0 [No]     38     0 [No] 
##  9 uuid:00504cf5-870c-4a02-aad7-ea5d47b135ff 33        0 [No]     34     0 [No] 
## 10 uuid:00534792-fb84-47b4-8606-e145d74cd089 24        0 [No]     25     0 [No] 
## 11 uuid:0058cbb8-9892-4a60-b9ed-fb556a21f862 29        0 [No]     30     0 [No] 
## 12 uuid:00682e93-0483-42b4-8f8d-2e0c36a26d37 16        0 [No]     17     0 [No] 
## 13 uuid:007699e0-d078-4a30-ace2-6de2cfaa571a 29        0 [No]     30     0 [No] 
## 14 uuid:00776552-ad8a-455b-93e0-ac9d066e2a85 22        0 [No]     23     0 [No] 
## 15 uuid:0084cafd-e83f-45ee-9906-8a1d2d0b923a 28        0 [No]     29     0 [No] 
## 16 uuid:009dbdcf-f9f0-4cb6-94e2-e6a46fb23bd6 41        0 [No]     42     0 [No] 
## 17 uuid:00b89b1d-25e1-40f0-8e52-e06ce5525555 47        1 [Yes]    47     0 [No] 
## 18 uuid:00bf8df9-340f-454b-95b7-04921ef54c28 15        0 [No]     16     0 [No] 
## 19 uuid:00c8312a-561a-4855-840d-63a6fba578ae 22        0 [No]     22     0 [No] 
## 20 uuid:00f7a6fb-484e-4664-a646-79dd480ab43e 24        0 [No]     25     0 [No] 
## 21 uuid:00f834ef-fb10-4402-a609-f0f39f331f41 47        0 [No]     47     0 [No] 
## 22 uuid:01009c42-e131-4845-a746-93c98b892b57 47        0 [No]     47     0 [No] 
## 23 uuid:0105d2b2-e4f0-494a-81e2-1847d122cd80 37        0 [No]     38     0 [No] 
## 24 uuid:010fbc4c-464d-41ab-b76c-bafa69eb18f4 36        0 [No]     37     0 [No] 
## 25 uuid:011ef212-8106-4893-8e37-de7c07c38f9c 43        0 [No]     44     0 [No] 
## 26 uuid:011f023e-baba-4bdb-bf41-749857749381 17        0 [No]     17     0 [No] 
## 27 uuid:0138720b-6145-484d-b1ac-347f39bc70af 22        0 [No]     22     0 [No] 
## 28 uuid:0147c5e0-1de8-49c2-bd35-f4e4ba639e35 35        0 [No]     36     0 [No] 
## 29 uuid:01702a75-7518-436d-a2e9-1aed8ff529f8 20        0 [No]     22     0 [No] 
## 30 uuid:01a47bc3-496a-4661-bf50-3069209621b5 33        1 [Yes]    34     0 [No] 
## # … with 17,695 more rows, and abbreviated variable name ¹​PREGNANT_2

With pivot_longer, you can strip the suffix 1 or 2 from each variable, placing the result in a new column called PHASE. Then, we’ll pivot each woman’s age and pregnancy status from 2 wide columns into a single long one.

wide %>% 
  select(FQINSTID, AGE_1, PREGNANT_1, AGE_2, PREGNANT_2) %>% 
  pivot_longer(
    !FQINSTID, 
    names_pattern = "(.*)_([1-2])",
    names_to = c(".value", "PHASE")
  )

## # A tibble: 35,450 × 4
##    FQINSTID                                  PHASE AGE       PREGNANT 
##    <chr>                                     <chr> <int+lbl> <int+lbl>
##  1 uuid:0005f6d7-b7cd-46f6-8a6f-5f051b6ab4a2 1     30        0 [No]   
##  2 uuid:0005f6d7-b7cd-46f6-8a6f-5f051b6ab4a2 2     31        0 [No]   
##  3 uuid:0006cb76-09d1-4f2a-a92d-c12fcaf194b5 1     34        1 [Yes]  
##  4 uuid:0006cb76-09d1-4f2a-a92d-c12fcaf194b5 2     34        0 [No]   
##  5 uuid:00204481-5cae-4188-abb3-0367d0ed9c14 1     17        0 [No]   
##  6 uuid:00204481-5cae-4188-abb3-0367d0ed9c14 2     18        0 [No]   
##  7 uuid:002398f4-8f2d-4095-8019-c306d39cf2b9 1     29        0 [No]   
##  8 uuid:002398f4-8f2d-4095-8019-c306d39cf2b9 2     29        0 [No]   
##  9 uuid:00407300-c1e6-4e24-ab8d-8af5e1ca85a6 1     25        0 [No]   
## 10 uuid:00407300-c1e6-4e24-ab8d-8af5e1ca85a6 2     25        0 [No]   
## 11 uuid:00413ed1-d176-44fb-a232-7e53c1db0958 1     32        0 [No]   
## 12 uuid:00413ed1-d176-44fb-a232-7e53c1db0958 2     32        0 [No]   
## 13 uuid:0048a052-66ff-4ed5-9fa9-fc72e6dab696 1     38        0 [No]   
## 14 uuid:0048a052-66ff-4ed5-9fa9-fc72e6dab696 2     39        0 [No]   
## 15 uuid:004d80f0-90c6-4b77-bb4d-21d09c84fe74 1     38        0 [No]   
## 16 uuid:004d80f0-90c6-4b77-bb4d-21d09c84fe74 2     38        0 [No]   
## 17 uuid:00504cf5-870c-4a02-aad7-ea5d47b135ff 1     33        0 [No]   
## 18 uuid:00504cf5-870c-4a02-aad7-ea5d47b135ff 2     34        0 [No]   
## 19 uuid:00534792-fb84-47b4-8606-e145d74cd089 1     24        0 [No]   
## 20 uuid:00534792-fb84-47b4-8606-e145d74cd089 2     25        0 [No]   
## 21 uuid:0058cbb8-9892-4a60-b9ed-fb556a21f862 1     29        0 [No]   
## 22 uuid:0058cbb8-9892-4a60-b9ed-fb556a21f862 2     30        0 [No]   
## 23 uuid:00682e93-0483-42b4-8f8d-2e0c36a26d37 1     16        0 [No]   
## 24 uuid:00682e93-0483-42b4-8f8d-2e0c36a26d37 2     17        0 [No]   
## 25 uuid:007699e0-d078-4a30-ace2-6de2cfaa571a 1     29        0 [No]   
## 26 uuid:007699e0-d078-4a30-ace2-6de2cfaa571a 2     30        0 [No]   
## 27 uuid:00776552-ad8a-455b-93e0-ac9d066e2a85 1     22        0 [No]   
## 28 uuid:00776552-ad8a-455b-93e0-ac9d066e2a85 2     23        0 [No]   
## 29 uuid:0084cafd-e83f-45ee-9906-8a1d2d0b923a 1     28        0 [No]   
## 30 uuid:0084cafd-e83f-45ee-9906-8a1d2d0b923a 2     29        0 [No]   
## # … with 35,420 more rows
…
Notice that we group_by FPSTATUS_1 and FPSTATUS_2 here. When we do this, survey_mean estimates the proportion of outcomes represented by the variable that appears last, which is FPSTATUS_2. The proportions sum to 1.0 for each combination of POP and FPSTATUS_1: in other words, we obtain the proportion of FPSTATUS_2 on the condition that women from a given POP held a particular status represented by FPSTATUS_1. For this reason, this is known as a conditional distribution.

status_tbl <- dat %>% 
  group_by(POP) %>% 
  summarise(
    .groups = "keep",
    cur_data() %>% 
      as_survey_design(weight = PANELWEIGHT, id = EAID_1, strata = STRATA_RECODE) %>%
      group_by(FPSTATUS_1, FPSTATUS_2) %>% 
      summarise(survey_mean(prop = TRUE, prop_method = "logit", vartype = "ci"))
  )

status_tbl

## # A tibble: 54 × 6
## # Groups:   POP [6]
##    POP            FPSTATUS_1   FPSTATUS_2     coef `_low` `_upp`
##    <chr>          <fct>        <fct>         <dbl>  <dbl>  <dbl>
##  1 Burkina Faso   Pregnant     Pregnant     0.0302 0.0137 0.0652
##  2 Burkina Faso   Pregnant     Not Using FP 0.568  0.491  0.642 
##  3 Burkina Faso   Pregnant     Using FP     0.401  0.329  0.478 
##  4 Burkina Faso   Not Using FP Pregnant     0.0779 0.0651 0.0929
##  5 Burkina Faso   Not Using FP Not Using FP 0.739  0.711  0.765 
##  6 Burkina Faso   Not Using FP Using FP     0.183  0.158  0.211 
##  7 Burkina Faso   Using FP     Pregnant     0.0993 0.0815 0.121 
##  8 Burkina Faso   Using FP     Not Using FP 0.248  0.213  0.287 
##  9 Burkina Faso   Using FP     Using FP     0.653  0.609  0.694 
## 10 DRC - Kinshasa Pregnant     Pregnant     0.0367 0.0140 0.0930
## # … with 44 more rows
…
status_tbl <- status_tbl %>% right_join(col_margins) %>% right_join(row_margins)

## Joining, by = c("POP", "FPSTATUS_1")
## Joining, by = c("POP", "FPSTATUS_2")

status_tbl

## # A tibble: 54 × 8
## # Groups:   POP [6]
##    POP            FPSTATUS_1   FPSTATUS_2     coef `_low` `_upp`   cols   rows
##    <chr>          <fct>        <fct>         <dbl>  <dbl>  <dbl>  <dbl>  <dbl>
##  1 Burkina Faso   Pregnant     Pregnant     0.0302 0.0137 0.0652 0.0879 0.0799
##  2 Burkina Faso   Pregnant     Not Using FP 0.568  0.491  0.642  0.0879 0.583 
##  3 Burkina Faso   Pregnant     Using FP     0.401  0.329  0.478  0.0879 0.337 
##  4 Burkina Faso   Not Using FP Pregnant     0.0779 0.0651 0.0929 0.624  0.0799
##  5 Burkina Faso   Not Using FP Not Using FP 0.739  0.711  0.765  0.624  0.583 
##  6 Burkina Faso   Not Using FP Using FP     0.183  0.158  0.211  0.624  0.337 
##  7 Burkina Faso   Using FP     Pregnant     0.0993 0.0815 0.121  0.288  0.0799
##  8 Burkina Faso   Using FP     Not Using FP 0.248  0.213  0.287  0.288  0.583 
##  9 Burkina Faso   Using FP     Using FP     0.653  0.609  0.694  0.288  0.337 
## 10 DRC - Kinshasa Pregnant     Pregnant     0.0367 0.0140 0.0930 0.0552 0.0533
## # … with 44 more rows
…
There are no error bars on our heatmap. If we wanted to include information about the confidence interval for each estimation, we would have to include text symbols.

While both plots show information about the conditional distribution of FPSTATUS_2 given a starting point in FPSTATUS_1, only the heatmap includes the marginal distribution of each variable in its row and column margins.

The marginal distribution may provide crucial information about the conditional distribution that we would otherwise miss. Consider Burkina Faso, where both users and non-users of family planning at Phase 1 were generally most likely to maintain their status at Phase 2. The marginal distribution adds additional information: non-users comprise a larger share of the overall population at Phase 1.

In certain contexts, you may want to combine information from the Phase 1 marginal distribution together with the conditional distribution of outcomes at Phase 2. To continue with our example from Burkina Faso, you might report that - because
non-users represent about 62% of the population, only about 11% of the population adopted family planning at Phase 2 following non-use at Phase 1. That is: 18% of 62% is 11%.

In contrast with the conditional distribution, this type of distribution describes the share of the population that experiences some combination of Phase 1 and Phase 2 outcomes without assuming a particular starting point at Phase 1. It’s known as a joint distribution because it gives the probability that two events will happen together (in sequence). Let’s return to our summary table, status_tbl:

status_tbl

## # A tibble: 54 × 8
## # Groups:   POP [6]
##    POP            FPSTATUS_1   FPSTATUS_2     coef `_low` `_upp`   cols   rows
##    <chr>          <fct>        <fct>         <dbl>  <dbl>  <dbl>  <dbl>  <dbl>
##  1 Burkina Faso   Pregnant     Pregnant     0.0302 0.0137 0.0652 0.0879 0.0799
##  2 Burkina Faso   Pregnant     Not Using FP 0.568  0.491  0.642  0.0879 0.583 
##  3 Burkina Faso   Pregnant     Using FP     0.401  0.329  0.478  0.0879 0.337 
##  4 Burkina Faso   Not Using FP Pregnant     0.0779 0.0651 0.0929 0.624  0.0799
##  5 Burkina Faso   Not Using FP Not Using FP 0.739  0.711  0.765  0.624  0.583 
##  6 Burkina Faso   Not Using FP Using FP     0.183  0.158  0.211  0.624  0.337 
##  7 Burkina Faso   Using FP     Pregnant     0.0993 0.0815 0.121  0.288  0.0799
##  8 Burkina Faso   Using FP     Not Using FP 0.248  0.213  0.287  0.288  0.583 
##  9 Burkina Faso   Using FP     Using FP     0.653  0.609  0.694  0.288  0.337 
## 10 DRC - Kinshasa Pregnant     Pregnant     0.0367 0.0140 0.0930 0.0552 0.0533
## # … with 44 more rows

To find the estimated joint distribution for each combination of FPSTATUS_1 and FPSTATUS_2, you could simply multiply each value in cols by the value in coef:

status_tbl %>% mutate(joint = cols * coef)

## # A tibble: 54 × 9
## # Groups:   POP [6]
##    POP            FPSTATUS_1   FPSTATUS_2     coef `_low` `_upp`   cols   rows   joint
##    <chr>          <fct>        <fct>         <dbl>  <dbl>  <dbl>  <dbl>  <dbl>   <dbl>
##  1 Burkina Faso   Pregnant     Pregnant     0.0302 0.0137 0.0652 0.0879 0.0799 0.00266
##  2 Burkina Faso   Pregnant     Not Using FP 0.568  0.491  0.642  0.0879 0.583  0.0499 
##  3 Burkina Faso   Pregnant     Using FP     0.401  0.329  0.478  0.0879 0.337  0.0353 
##  4 Burkina Faso   Not Using FP Pregnant     0.0779 0.0651 0.0929 0.624  0.0799 0.0486 
##  5 Burkina Faso   Not Using FP Not Using FP 0.739  0.711  0.765  0.624  0.583  0.461  
##  6 Burkina Faso   Not Using FP Using FP     0.183  0.158  0.211  0.624  0.337  0.114  
##  7 Burkina Faso   Using FP     Pregnant     0.0993 0.0815 0.121  0.288  0.0799 0.0286 
##  8 Burkina Faso   Using FP     Not Using FP 0.248  0.213  0.287  0.288  0.583  0.0713 
##  9 Burkina Faso   Using FP     Using FP     0.653  0.609  0.694  0.288  0.337  0.188  
## 10 DRC - Kinshasa Pregnant     Pregnant     0.0367 0.0140 0.0930 0.0552 0.0533 0.00203
## # … with 44 more rows
In practice, you’ll usually want to let srvyr calculate a confidence interval for each joint probability. To do so, we’ll add an interact function listing the variables in group_by that we want to model jointly.

joint_tbl <- dat %>% 
  group_by(POP) %>% 
  summarise(
    .groups = "keep",
    cur_data() %>% 
      as_survey_design(weight = PANELWEIGHT, id = EAID_1, strata = STRATA_RECODE) %>%
      group_by(interact(FPSTATUS_1, FPSTATUS_2)) %>% 
      summarise(joint = survey_mean(prop = TRUE, prop_method = "logit", vartype = "ci"))
  )
  
joint_tbl

## # A tibble: 54 × 6
## # Groups:   POP [6]
##    POP            FPSTATUS_1   FPSTATUS_2     joint joint_low joint_upp
##    <chr>          <fct>        <fct>          <dbl>     <dbl>     <dbl>
##  1 Burkina Faso   Pregnant     Pregnant     0.00266  0.00120    0.00587
##  2 Burkina Faso   Pregnant     Not Using FP 0.0499   0.0404     0.0615 
##  3 Burkina Faso   Pregnant     Using FP     0.0353   0.0291     0.0427 
##  4 Burkina Faso   Not Using FP Pregnant     0.0486   0.0402     0.0588 
##  5 Burkina Faso   Not Using FP Not Using FP 0.461    0.428      0.495  
##  6 Burkina Faso   Not Using FP Using FP     0.114    0.100      0.130  
##  7 Burkina Faso   Using FP     Pregnant     0.0286   0.0228     0.0357 
##  8 Burkina Faso   Using FP     Not Using FP 0.0713   0.0613     0.0829 
##  9 Burkina Faso   Using FP     Using FP     0.188    0.164      0.214  
## 10 DRC - Kinshasa Pregnant     Pregnant     0.00203  0.000794   0.00515
## # … with 44 more rows
…
To begin, let’s revisit joint_tbl, which only contains the joint distribution for FPSTATUS_1 and FPSTATUS_2. In fact, ggalluvial will calculate the marginal distribution for both variables automatically if we reshape joint_tbl with pivot_longer like so:

joint_tbl <- joint_tbl %>% 
  rowid_to_column("alluvium") %>% 
  pivot_longer(
    c(FPSTATUS_1, FPSTATUS_2), 
    names_to = "x", 
    values_to = "stratum"
  ) %>% 
  mutate(x = ifelse(x == "FPSTATUS_1", "Phase 1", "Phase 2")) %>% 
  arrange(x, alluvium)

joint_tbl

## # A tibble: 108 × 7
## # Groups:   POP [6]
##    alluvium POP              joint joint_low joint_upp x       stratum     
##       <int> <chr>            <dbl>     <dbl>     <dbl> <chr>   <fct>       
##  1        1 Burkina Faso   0.00266  0.00120    0.00587 Phase 1 Pregnant    
##  2        2 Burkina Faso   0.0499   0.0404     0.0615  Phase 1 Pregnant    
##  3        3 Burkina Faso   0.0353   0.0291     0.0427  Phase 1 Pregnant    
##  4        4 Burkina Faso   0.0486   0.0402     0.0588  Phase 1 Not Using FP
##  5        5 Burkina Faso   0.461    0.428      0.495   Phase 1 Not Using FP
##  6        6 Burkina Faso   0.114    0.100      0.130   Phase 1 Not Using FP
##  7        7 Burkina Faso   0.0286   0.0228     0.0357  Phase 1 Using FP    
##  8        8 Burkina Faso   0.0713   0.0613     0.0829  Phase 1 Using FP    
##  9        9 Burkina Faso   0.188    0.164      0.214   Phase 1 Using FP    
## 10       10 DRC - Kinshasa 0.00203  0.000794   0.00515 Phase 1 Pregnant    
## # … with 98 more rows
…
dat <- dat %>% 
  mutate(
    CALSTOP_1 = INTFQCMC_1,
    CALSTOP_2 = INTFQCMC_2
  )

Now, let’s take a look at the calendar variables we want to merge. You’ll only find responses in the calendar for the country in which a woman resides. The other calendars in her row will appear as an empty character string, the value "". For example, notice that the variable CALENDARKE_1 is blank for these women from Burkina Faso:

dat %>% 
  filter(COUNTRY == "BF") %>% 
  select(ID, COUNTRY, CALENDARBF_1, CALENDARKE_1)

## # A tibble: 5,208 × 4
##       ID COUNTRY CALENDARBF_1                                            CALEN…¹
##    <int> <fct>   <chr+lbl>                                               <chr+l>
##  1     1 BF      ,,,,,,,,,,0,0,0,0,0,0,0,0,0,0,0,0,B,P,P,P,P,P,P,P,P,0,… ""     
##  2     2 BF      ,,,,,,,,,,,P,P,P,P,P,P,P,0,0,0,0,0,0,0,3,3,3,3,3,3,3,3… ""     
##  3     3 BF      ,,,,,,,,,,,0,0,0,0,0,0,0,0,0,0,0,0,0,0,0,0,0,0,0,0,0,0… ""     
##  4     4 BF      ,,,,,,,,,,,0,0,0,5,5,5,5,5,5,5,5,5,5,5,0,0,0,0,0,0,0,0… ""     
##  5     5 BF      ,,,,,,,,,,,0,0,0,0,0,0,0,0,0,0,0,0,0,0,0,0,0,0,0,B,P,P… ""     
##  6     6 BF      ,,,,,,,,,,,0,0,0,0,0,0,0,0,0,0,0,0,0,0,0,0,0,0,0,0,0,0… ""     
##  7     7 BF      ,,,,,,,,,,,0,0,0,0,0,0,0,0,0,0,0,0,0,T,P,P,P,P,P,P,0,0… ""     
##  8     8 BF      ,,,,,,,,,,,B,P,P,P,P,P,P,P,P,P,0,0,0,0,0,0,0,0,0,0,0,0… ""     
##  9     9 BF      ,,,,,,,,,,,,3,3,3,3,3,3,3,3,3,3,3,3,3,3,3,3,3,3,3,3,3,… ""     
## 10    10 BF      ,,,,,,,,,,,0,0,0,0,0,0,0,0,0,0,0,0,0,0,0,0,0,0,0,0,0,0… ""     
## # … with 5,198 more rows, and abbreviated variable name ¹​CALENDARKE_1
…
